"LatD""LatM""LatS""NS""LonD""LonM""LonS""EW""City""State"
"1"41559" N"80390" W"" Youngstown"" OH"
"2"425248" N"972323" W"" Yankton"" SD"
"3"463559" N"1203036" W"" Yakima"" WA"
"4"421612" N"71480" W"" Worcester"" MA"
"5"433748" N"894611" W"" Wisconsin Dells"" WI"
"6"36559" N"80150" W"" Winston-Salem"" NC"
"7"495248" N"9790" W"" Winnipeg"" MB"
"8"391123" N"78936" W"" Winchester"" VA"
"9"341424" N"775511" W"" Wilmington"" NC"
"10"39450" N"75330" W"" Wilmington"" DE"
"11"4890" N"1033712" W"" Williston"" ND"
"12"41150" N"7700" W"" Williamsport"" PA"
"13"374048" N"821647" W"" Williamson"" WV"
"14"33540" N"982923" W"" Wichita Falls"" TX"
"15"374123" N"972023" W"" Wichita"" KS"
"16"40411" N"804312" W"" Wheeling"" WV"
"17"264311" N"8030" W"" West Palm Beach"" FL"
"18"472511" N"1201911" W"" Wenatchee"" WA"
"19"412511" N"1222323" W"" Weed"" CA"
"20"311311" N"822059" W"" Waycross"" GA"
"21"445735" N"893823" W"" Wausau"" WI"
"22"422136" N"874948" W"" Waukegan"" IL"
"23"44540" N"97636" W"" Watertown"" SD"
"24"435847" N"755511" W"" Watertown"" NY"
"25"42300" N"922023" W"" Waterloo"" IA"
"26"413259" N"7330" W"" Waterbury"" CT"
"27"385323" N"77147" W"" Washington"" DC"
"28"415059" N"79823" W"" Warren"" PA"
"29"46411" N"1181948" W"" Walla Walla"" WA"
"30"313259" N"97823" W"" Waco"" TX"
"31"384048" N"873147" W"" Vincennes"" IN"
"32"284835" N"97036" W"" Victoria"" TX"
"33"322059" N"905247" W"" Vicksburg"" MS"
"34"491612" N"123712" W"" Vancouver"" BC"
"35"465511" N"98036" W"" Valley City"" ND"
"36"304947" N"831647" W"" Valdosta"" GA"
"37"43636" N"751348" W"" Utica"" NY"
"38"39540" N"794348" W"" Uniontown"" PA"
"39"322059" N"95180" W"" Tyler"" TX"
"40"423336" N"1142812" W"" Twin Falls"" ID"
"41"331235" N"873411" W"" Tuscaloosa"" AL"
"42"341535" N"884235" W"" Tupelo"" MS"
"43"36935" N"955436" W"" Tulsa"" OK"
"44"321312" N"1105812" W"" Tucson"" AZ"
"45"371011" N"1043036" W"" Trinidad"" CO"
"46"401347" N"744611" W"" Trenton"" NJ"
"47"444535" N"853747" W"" Traverse City"" MI"
"48"43390" N"792247" W"" Toronto"" ON"
"49"39259" N"954011" W"" Topeka"" KS"
"50"41390" N"833224" W"" Toledo"" OH"
"51"332548" N"9430" W"" Texarkana"" TX"
"52"392812" N"872436" W"" Terre Haute"" IN"
"53"27570" N"822659" W"" Tampa"" FL"
"54"30270" N"841647" W"" Tallahassee"" FL"
"55"471424" N"1222548" W"" Tacoma"" WA"
"56"43259" N"7690" W"" Syracuse"" NY"
"57"323559" N"822023" W"" Swainsboro"" GA"
"58"335511" N"802059" W"" Sumter"" SC"
"59"405924" N"751124" W"" Stroudsburg"" PA"
"60"375735" N"1211724" W"" Stockton"" CA"
"61"443112" N"893411" W"" Stevens Point"" WI"
"62"402136" N"803712" W"" Steubenville"" OH"
"63"403711" N"1031312" W"" Sterling"" CO"
"64"3890" N"79411" W"" Staunton"" VA"
"65"395511" N"834835" W"" Springfield"" OH"
"66"371312" N"931724" W"" Springfield"" MO"
"67"42559" N"723523" W"" Springfield"" MA"
"68"394759" N"89390" W"" Springfield"" IL"
"69"474011" N"1172436" W"" Spokane"" WA"
"70"414048" N"86150" W"" South Bend"" IN"
"71"433224" N"964348" W"" Sioux Falls"" SD"
"72"422924" N"962323" W"" Sioux City"" IA"
"73"323035" N"93450" W"" Shreveport"" LA"
"74"333823" N"963636" W"" Sherman"" TX"
"75"444759" N"1065735" W"" Sheridan"" WY"
"76"351347" N"964048" W"" Seminole"" OK"
"77"322511" N"87111" W"" Selma"" AL"
"78"384235" N"931348" W"" Sedalia"" MO"
"79"473559" N"1221948" W"" Seattle"" WA"
"80"412435" N"754011" W"" Scranton"" PA"
"81"415211" N"1033936" W"" Scottsbluff"" NB"
"82"424911" N"735659" W"" Schenectady"" NY"
"83"32448" N"81523" W"" Savannah"" GA"
"84"462924" N"842059" W"" Sault Sainte Marie"" MI"
"85"272024" N"823147" W"" Sarasota"" FL"
"86"382623" N"1224312" W"" Santa Rosa"" CA"
"87"354048" N"1055659" W"" Santa Fe"" NM"
"88"342511" N"1194159" W"" Santa Barbara"" CA"
"89"334535" N"1175212" W"" Santa Ana"" CA"
"90"372024" N"1215247" W"" San Jose"" CA"
"91"374647" N"1222511" W"" San Francisco"" CA"
"92"41270" N"824235" W"" Sandusky"" OH"
"93"324235" N"11790" W"" San Diego"" CA"
"94"34636" N"1171835" W"" San Bernardino"" CA"
"95"292512" N"98300" W"" San Antonio"" TX"
"96"312735" N"1002624" W"" San Angelo"" TX"
"97"404535" N"1115247" W"" Salt Lake City"" UT"
"98"382211" N"753559" W"" Salisbury"" MD"
"99"364011" N"121390" W"" Salinas"" CA"
"100"385024" N"973636" W"" Salina"" KS"
"101"383147" N"10600" W"" Salida"" CO"
"102"445623" N"123147" W"" Salem"" OR"
"103"44570" N"93559" W"" Saint Paul"" MN"
"104"383711" N"901124" W"" Saint Louis"" MO"
"105"394612" N"945023" W"" Saint Joseph"" MO"
"106"42559" N"862848" W"" Saint Joseph"" MI"
"107"442511" N"72111" W"" Saint Johnsbury"" VT"
"108"453411" N"941011" W"" Saint Cloud"" MN"
"109"295323" N"811911" W"" Saint Augustine"" FL"
"110"432548" N"835624" W"" Saginaw"" MI"
"111"383524" N"1212923" W"" Sacramento"" CA"
"112"433636" N"725812" W"" Rutland"" VT"
"113"33240" N"1043147" W"" Roswell"" NM"
"114"355623" N"77480" W"" Rocky Mount"" NC"
"115"413524" N"1091348" W"" Rock Springs"" WY"
"116"421612" N"89559" W"" Rockford"" IL"
"117"43935" N"773636" W"" Rochester"" NY"
"118"44112" N"922735" W"" Rochester"" MN"
"119"371612" N"795624" W"" Roanoke"" VA"
"120"373224" N"772659" W"" Richmond"" VA"
"121"394948" N"845323" W"" Richmond"" IN"
"122"384612" N"112523" W"" Richfield"" UT"
"123"453823" N"892511" W"" Rhinelander"" WI"
"124"393112" N"1194835" W"" Reno"" NV"
"125"502511" N"104390" W"" Regina"" SA"
"126"401048" N"1221423" W"" Red Bluff"" CA"
"127"401948" N"755548" W"" Reading"" PA"
"128"41935" N"811423" W"" Ravenna"" OH "
